<?xml version="1.0" encoding="UTF-8"?>
<svg width="18px" height="21px" viewBox="0 0 18 21" version="1.1" xmlns="http://www.w3.org/2000/svg" xmlns:xlink="http://www.w3.org/1999/xlink">
    <!-- Generator: Sketch 49 (51002) - http://www.bohemiancoding.com/sketch -->
    <title>basket/active</title>
    <desc>Created with Sketch.</desc>
    <defs></defs>
    <g id="desktop" stroke="none" stroke-width="1" fill="none" fill-rule="evenodd">
        <g id="home/user/person" transform="translate(-1211.000000, -202.000000)">
            <g id="basket/active" transform="translate(1212.000000, 202.000000)">
                <path d="M0,2 L16,2" id="Line-4" stroke="#F1ADBE" stroke-linecap="square"></path>
                <path d="M5,1 L11,1" id="Line-4" stroke="#F1ADBE" stroke-linecap="square"></path>
                <path d="M15,3 L15,18 C15,19.1045695 14.1642649,20 13.1333333,20 L2.86666667,20 C1.83573513,20 1,19.1045695 1,18 L1,3" id="Rectangle-16" stroke="#F1ADBE" fill="#F1ADBE" fill-rule="evenodd"></path>
                <path d="M4,17 L4,6" id="Line-5" stroke="#FFFFFF" stroke-linecap="square"></path>
                <polyline id="Line-5" stroke="#FFFFFF" stroke-linecap="square" points="8 17 8 9.4875961 8 6"></polyline>
                <path d="M12,17 L12,6" id="Line-5" stroke="#FFFFFF" stroke-linecap="square"></path>
            </g>
        </g>
    </g>
</svg>